<?xml version="1.0" encoding="UTF-8" standalone="no"?>
<!-- Created with Inkscape (http://www.inkscape.org/) -->

<svg
   xmlns:dc="http://purl.org/dc/elements/1.1/"
   xmlns:cc="http://creativecommons.org/ns#"
   xmlns:rdf="http://www.w3.org/1999/02/22-rdf-syntax-ns#"
   xmlns:svg="http://www.w3.org/2000/svg"
   xmlns="http://www.w3.org/2000/svg"
   xmlns:sodipodi="http://sodipodi.sourceforge.net/DTD/sodipodi-0.dtd"
   xmlns:inkscape="http://www.inkscape.org/namespaces/inkscape"
   width="210mm"
   height="297mm"
   viewBox="0 0 210 297"
   version="1.1"
   id="svg8"
   inkscape:export-filename="/home/n1/workspace/ytitler/logo.png"
   inkscape:export-xdpi="127.90838"
   inkscape:export-ydpi="127.90838"
   inkscape:version="0.92.3 (2405546, 2018-03-11)"
   sodipodi:docname="logo.svg">
  <defs
     id="defs2" />
  <sodipodi:namedview
     id="base"
     pagecolor="#ffffff"
     bordercolor="#666666"
     borderopacity="1.0"
     inkscape:pageopacity="0.0"
     inkscape:pageshadow="2"
     inkscape:zoom="0.49497475"
     inkscape:cx="489.33463"
     inkscape:cy="599.41668"
     inkscape:document-units="mm"
     inkscape:current-layer="layer1"
     showgrid="false" />
  <metadata
     id="metadata5">
    <rdf:RDF>
      <cc:Work
         rdf:about="">
        <dc:format>image/svg+xml</dc:format>
        <dc:type
           rdf:resource="http://purl.org/dc/dcmitype/StillImage" />
        <dc:title></dc:title>
      </cc:Work>
    </rdf:RDF>
  </metadata>
  <g
     inkscape:label="Layer 1"
     inkscape:groupmode="layer"
     id="layer1"
     style="display:inline">
    <path
       style="display:inline;fill:#ff0000;fill-opacity:1;stroke:none;stroke-width:0.14143264;stroke-opacity:1"
       d="m 89.579184,182.82255 c -21.284841,-0.39791 -33.722631,-1.27793 -37.903944,-2.68187 -4.415217,-1.48247 -8.009922,-5.06534 -9.452407,-9.42127 -1.365611,-4.12381 -2.287028,-12.55154 -2.658967,-24.32027 -0.419172,-13.26321 0.801502,-29.28006 2.658967,-34.88913 1.441068,-4.35164 5.046876,-7.94779 9.440647,-9.41534 4.339342,-1.44938 16.035392,-2.27169 37.751742,-2.65422 18.189008,-0.3204 40.316318,0.31358 50.322678,1.44181 4.35901,0.49148 6.70812,1.02549 8.53583,1.94038 3.54671,1.77539 6.40474,5.03643 7.61377,8.68737 1.36561,4.12381 2.28703,12.55155 2.65897,24.32027 0.41918,13.26322 -0.8015,29.28007 -2.65897,34.88913 -1.44248,4.35593 -5.03718,7.9388 -9.4524,9.42127 -3.59058,1.20559 -12.94919,2.00206 -29.20584,2.48558 -4.87401,0.14497 -23.371242,0.27627 -27.650076,0.19629 z"
       id="path1070"
       inkscape:connector-curvature="0"
       sodipodi:nodetypes="cccsccssccsccsc" />
    <text
       xml:space="preserve"
       style="font-style:normal;font-variant:normal;font-weight:normal;font-stretch:normal;font-size:29.08324814px;line-height:1.25;font-family:Tamzen;-inkscape-font-specification:Tamzen;text-align:center;letter-spacing:0px;word-spacing:0px;text-anchor:middle;display:inline;fill:#ffffff;fill-opacity:1;stroke:none;stroke-width:0.72708118"
       x="99.063911"
       y="151.16942"
       id="text1074"><tspan
         sodipodi:role="line"
         id="tspan1072"
         x="99.063911"
         y="151.16942"
         style="fill:#ffffff;stroke-width:0.72708118">YTitler</tspan></text>
  </g>
</svg>
